<?xml version="1.0" encoding="UTF-8"?>
<glyph name="caroncomma.cap" format="2">
	<outline>
		<contour>
			<point x="60" y="700" type="line"/>
			<point x="210" y="700" type="line"/>
			<point x="332" y="830" type="line"/>
			<point x="226" y="830" type="line"/>
			<point x="144" y="772" type="line"/>
			<point x="140" y="772" type="line"/>
			<point x="86" y="830" type="line"/>
			<point x="-22" y="830" type="line"/>
		</contour>
		<component base="commaabovecmb.cap" xScale="0.9" yScale="0.9" xOffset="40" yOffset="180"/>
	</outline>
	<anchor name="_aboveUC" x="130" y="672"/>
	<lib>
		<dict>
			<key>public.markColor</key>
			<string>0.9958,0.8001,0.4,1</string>
		</dict>
	</lib>
</glyph>
